Clustering : High Cancer risk vs Low Cancer risk for counties in California
…
Step 6 - Data Preparation & clean-up

Normalize all the continuous CRPM variables.

Inspect the normalized dataset.

# 6.1.1 Separate the county
df_cea_agg$county <- as.character(df_cea_agg$county)
county <- df_cea_agg[,2]
county

## # A tibble: 59 x 1
##    county      
##    <chr>       
##  1 Alameda     
##  2 Alpine      
##  3 Amador      
##  4 Butte       
##  5 Calaveras   
##  6 Colusa      
##  7 Contra Costa
##  8 Del Norte   
##  9 El Dorado   
## 10 Entire state
## # ... with 49 more rows
…
